v5/8000Os.csv

Record Length,2500,Points,-249.99998277E-6,159.99999642E-3,
Sample Interval,200.00000234E-9,s,-249.79998125E-6,239.99999464E-3,
Trigger Point,1.2500000E3,Samples,-249.59997972E-6,159.99999642E-3,
,,,-249.39997820E-6,239.99999464E-3,
,,,-249.19997668E-6,319.99999285E-3,
,,,-248.99997516E-6,159.99999642E-3,
Source,CH2,,-248.79997363E-6,319.99999285E-3,
Vertical Units,Volts,,-248.59997211E-6,479.999989271E-3,
Vertical Scale,2.0478125,,-248.39997059E-6,319.99999285E-3,
Vertical Offset,0,,-248.19996906E-6,319.99999285E-3,
Horizontal Units,s,,-247.99999665E-6,399.99997616E-3,
Horizontal Scale,50.00000058E-6,,-247.79999512E-6,399.99997616E-3,
Pt Fmt,Y,,-247.59999360E-6,479.999989271E-3,
Yzero,0.0,,-247.39999208E-6,479.999989271E-3,
Probe Atten,1.000000,,-247.19999055E-6,479.999989271E-3,
,,,-246.99998903E-6,479.999989271E-3,
Note,TDS 2022B - 16:46:47   09.01.2019,,-246.79998751E-6,560.000002384E-3,
,,,-246.59998599E-6,639.999985695E-3,
,,,-246.39998446E-6,560.000002384E-3,
,,,-246.19998294E-6,719.999969006E-3,
,,,-245.99998142E-6,719.999969006E-3,
,,,-245.79997989E-6,639.999985695E-3,
,,,-245.59997837E-6,639.999985695E-3,
,,,-245.39997685E-6,799.999952316E-3,
,,,-245.19997532E-6,799.999952316E-3,
,,,-244.99997380E-6,799.999952316E-3,
,,,-244.79997228E-6,799.999952316E-3,
,,,-244.59997076E-6,959.999978542E-3,
,,,-244.39996923E-6,959.999978542E-3,
,,,-244.19999681E-6,879.999995232E-3,
,,,-243.99998074E-6,959.999978542E-3,
,,,-243.79997922E-6,1.0400000,
,,,-243.59997769E-6,959.999978542E-3,
,,,-243.39997617E-6,1.0400000,
,,,-243.19998920E-6,1.1200000,
,,,-242.99998768E-6,1.1200000,
,,,-242.79998615E-6,1.1200000,
,,,-242.59998463E-6,1.1200000,
,,,-242.39998311E-6,1.1200000,
,,,-242.19998159E-6,1.1200000,
,,,-241.99998006E-6,1.2800000,
,,,-241.79997854E-6,1.1999999,
,,,-241.59997702E-6,1.1999999,
,,,-241.39997549E-6,1.1999999,
,,,-241.19998852E-6,1.3600000,
,,,-240.99998700E-6,1.2800000,
,,,-240.79998548E-6,1.3600000,
,,,-240.59998395E-6,1.3600000,
,,,-240.39998243E-6,1.3600000,
,,,-240.19998091E-6,1.5200000,
,,,-239.99997939E-6,1.4399999,
,,,-239.79997786E-6,1.3600000,
,,,-239.59997634E-6,1.4399999,
,,,-239.39998937E-6,1.5200000,
,,,-239.19998785E-6,1.5200000,
,,,-238.99998632E-6,1.5200000,
,,,-238.79998480E-6,1.4399999,
,,,-238.59998328E-6,1.5999999,
,,,-238.39998175E-6,1.5200000,
,,,-238.19998023E-6,1.5999999,
,,,-237.99997871E-6,1.7600000,
,,,-237.79997719E-6,1.6799999,
,,,-237.59997566E-6,1.7600000,
,,,-237.39998869E-6,1.6799999,
,,,-237.19998717E-6,1.7600000,
,,,-236.99998565E-6,1.7600000,
,,,-236.79998412E-6,1.8399999,
,,,-236.59998260E-6,1.7600000,
,,,-236.39998108E-6,1.8399999,
,,,-236.19997955E-6,1.8399999,
,,,-235.99997803E-6,1.8399999,
,,,-235.79997651E-6,1.8399999,
,,,-235.59998954E-6,1.8399999,
,,,-235.39998801E-6,1.9200000,
,,,-235.19998649E-6,1.9200000,
,,,-234.99998497E-6,1.9200000,
,,,-234.79998345E-6,2.0000000,
,,,-234.59998192E-6,2.0000000,
,,,-234.39998040E-6,2.0799999,
,,,-234.19997888E-6,2.0799999,
,,,-233.99997735E-6,2.0799999,
,,,-233.79997583E-6,2.0000000,
,,,-233.59998886E-6,2.1599998,
,,,-233.39998734E-6,2.1599998,
,,,-233.19998581E-6,2.1599998,
,,,-232.99998429E-6,2.0799999,
,,,-232.79998277E-6,2.0799999,
,,,-232.59998125E-6,2.1599998,
,,,-232.39997972E-6,2.0799999,
,,,-232.19997820E-6,2.1599998,
,,,-231.99997668E-6,2.3199999,
,,,-231.79998971E-6,2.1599998,
,,,-231.59998818E-6,2.3199999,
,,,-231.39998666E-6,2.3199999,
,,,-231.19998514E-6,2.2400000,
,,,-230.99998361E-6,2.2400000,
,,,-230.79998209E-6,2.3199999,
,,,-230.59998057E-6,2.3999999,
,,,-230.39997905E-6,2.3199999,
,,,-230.19997752E-6,2.3199999,
,,,-229.99997600E-6,2.3999999,
,,,-229.79998903E-6,2.3199999,
,,,-229.59998751E-6,2.3999999,
,,,-229.39998598E-6,2.3999999,
,,,-229.19998446E-6,2.4800000,
,,,-228.99998294E-6,2.3199999,
,,,-228.79998141E-6,2.5599999,
,,,-228.59997989E-6,2.3199999,
,,,-228.39997837E-6,2.3999999,
,,,-228.19997685E-6,2.4800000,
,,,-227.99997532E-6,2.5599999,
,,,-227.79998835E-6,2.3999999,
,,,-227.59998683E-6,2.4800000,
,,,-227.39998531E-6,2.4800000,
,,,-227.19998378E-6,2.5599999,
,,,-226.99998226E-6,2.5599999,
,,,-226.79998074E-6,2.4800000,
,,,-226.59997921E-6,2.4800000,
,,,-226.39997769E-6,2.4800000,
,,,-226.19997617E-6,2.5599999,
,,,-225.99998920E-6,2.5599999,
,,,-225.79998767E-6,2.4800000,
,,,-225.59998615E-6,2.6399999,
,,,-225.39998463E-6,2.6399999,
,,,-225.19998311E-6,2.5599999,
,,,-224.99998158E-6,2.5599999,
,,,-224.79998006E-6,2.72000003,
,,,-224.59997854E-6,2.72000003,
,,,-224.39997701E-6,2.6399999,
,,,-224.19997549E-6,2.6399999,
,,,-223.99998852E-6,2.6399999,
,,,-223.79998700E-6,2.6399999,
,,,-223.59998547E-6,2.5599999,
,,,-223.39998395E-6,2.72000003,
,,,-223.19998243E-6,2.72000003,
,,,-222.99998091E-6,2.6399999,
,,,-222.79997938E-6,2.72000003,
,,,-222.59997786E-6,2.6399999,
,,,-222.39997634E-6,2.6399999,
,,,-222.19998937E-6,2.6399999,
,,,-221.99998784E-6,2.6399999,
,,,-221.79998632E-6,2.6399999,
,,,-221.59998480E-6,2.6399999,
,,,-221.39998327E-6,2.72000003,
,,,-221.19998175E-6,2.72000003,
,,,-220.99998023E-6,2.72000003,
,,,-220.79997871E-6,2.6399999,
,,,-220.59997718E-6,2.6399999,
,,,-220.39997566E-6,2.72000003,
,,,-220.19998869E-6,2.72000003,
,,,-219.99998717E-6,2.6399999,
,,,-219.79998564E-6,2.79999995,
,,,-219.59998412E-6,2.79999995,
,,,-219.39998260E-6,2.79999995,
,,,-219.19998107E-6,2.79999995,
,,,-218.99997955E-6,2.6399999,
,,,-218.79997803E-6,2.72000003,
,,,-218.59997651E-6,2.6399999,
,,,-218.39998954E-6,2.6399999,
,,,-218.19998801E-6,2.6399999,
,,,-217.99998649E-6,2.72000003,
,,,-217.79998497E-6,2.6399999,
,,,-217.59998344E-6,2.6399999,
,,,-217.39998192E-6,2.72000003,
,,,-217.19998040E-6,2.5599999,
,,,-216.99997887E-6,2.6399999,
,,,-216.79997735E-6,2.6399999,
,,,-216.59997583E-6,2.5599999,
,,,-216.39998886E-6,2.6399999,
,,,-216.19998734E-6,2.6399999,
,,,-215.99998581E-6,2.6399999,
,,,-215.79998429E-6,2.6399999,
,,,-215.59998277E-6,2.6399999,
,,,-215.39998124E-6,2.6399999,
,,,-215.19997972E-6,2.5599999,
,,,-214.99997820E-6,2.6399999,
,,,-214.79997667E-6,2.6399999,
,,,-214.59997515E-6,2.5599999,
,,,-214.39998818E-6,2.4800000,
,,,-214.19998666E-6,2.6399999,
,,,-213.99998514E-6,2.5599999,
,,,-213.79998361E-6,2.5599999,
,,,-213.59998209E-6,2.6399999,
,,,-213.39998057E-6,2.5599999,
,,,-213.19997904E-6,2.6399999,
,,,-212.99997752E-6,2.5599999,
,,,-212.79997600E-6,2.4800000,
,,,-212.59998903E-6,2.3999999,
,,,-212.39998750E-6,2.4800000,
,,,-212.19998598E-6,2.5599999,
,,,-211.99998446E-6,2.3999999,
,,,-211.79998294E-6,2.3999999,
,,,-211.59998141E-6,2.3999999,
,,,-211.39997989E-6,2.3999999,
,,,-211.19997837E-6,2.4800000,
,,,-210.99997684E-6,2.3999999,
,,,-210.79997532E-6,2.4800000,
,,,-210.59998835E-6,2.3999999,
,,,-210.39998683E-6,2.3999999,
,,,-210.19998530E-6,2.3999999,
,,,-209.99998378E-6,2.3199999,
,,,-209.79998226E-6,2.3199999,
,,,-209.59998074E-6,2.2400000,
,,,-209.39997921E-6,2.3199999,
,,,-209.19997769E-6,2.3199999,
,,,-208.99997617E-6,2.2400000,
,,,-208.79998920E-6,2.3199999,
,,,-208.59998767E-6,2.2400000,
,,,-208.39998615E-6,2.2400000,
,,,-208.19998463E-6,2.3199999,
,,,-207.99998310E-6,2.1599998,
,,,-207.79998158E-6,2.2400000,
,,,-207.59998006E-6,2.1599998,
,,,-207.39997854E-6,2.1599998,
,,,-207.19997701E-6,2.2400000,
,,,-206.99997549E-6,2.1599998,
,,,-206.79998852E-6,2.0000000,
,,,-206.59998700E-6,2.1599998,
,,,-206.39998547E-6,2.0000000,
,,,-206.19998395E-6,2.0000000,
,,,-205.99998243E-6,2.0799999,
,,,-205.79998090E-6,2.0000000,
,,,-205.59997938E-6,2.0000000,
,,,-205.39997786E-6,1.9200000,
,,,-205.19997634E-6,2.0000000,
,,,-204.99998936E-6,1.9200000,
,,,-204.79998784E-6,1.9200000,
,,,-204.59998632E-6,1.8399999,
,,,-204.39998480E-6,1.9200000,
,,,-204.19998327E-6,1.8399999,
,,,-203.99998175E-6,1.8399999,
,,,-203.79998023E-6,1.8399999,
,,,-203.59997870E-6,1.8399999,
,,,-203.39997718E-6,1.8399999,
,,,-203.19997566E-6,1.7600000,
,,,-202.99998869E-6,1.7600000,
,,,-202.79998716E-6,1.6799999,
,,,-202.59998564E-6,1.6799999,
,,,-202.39998412E-6,1.5999999,
,,,-202.19998260E-6,1.6799999,
,,,-201.99998107E-6,1.5999999,
,,,-201.79997955E-6,1.5999999,
,,,-201.59997803E-6,1.6799999,
,,,-201.39997650E-6,1.5999999,
,,,-201.19997498E-6,1.5999999,
,,,-200.99998801E-6,1.5200000,
,,,-200.79998649E-6,1.4399999,
,,,-200.59998496E-6,1.5200000,
,,,-200.39998344E-6,1.4399999,
,,,-200.19998192E-6,1.3600000,
,,,-199.99998040E-6,1.4399999,
,,,-199.79997887E-6,1.4399999,
,,,-199.59997735E-6,1.3600000,
,,,-199.39997583E-6,1.2800000,
,,,-199.19998886E-6,1.3600000,
,,,-198.99998733E-6,1.3600000,
,,,-198.79998581E-6,1.1999999,
,,,-198.59998429E-6,1.2800000,
,,,-198.39998276E-6,1.2800000,
,,,-198.19998124E-6,1.2800000,
,,,-197.99997972E-6,1.1200000,
,,,-197.79997820E-6,1.1200000,
,,,-197.59997667E-6,1.1999999,
,,,-197.39997515E-6,1.0400000,
,,,-197.19998818E-6,1.0400000,
,,,-196.99998666E-6,1.1200000,
,,,-196.79998513E-6,1.1200000,
,,,-196.59998361E-6,1.0400000,
,,,-196.39998209E-6,959.999978542E-3,
,,,-196.19998056E-6,1.0400000,
,,,-195.99997904E-6,1.0400000,
,,,-195.79997752E-6,959.999978542E-3,
,,,-195.59997600E-6,959.999978542E-3,
,,,-195.39998902E-6,879.999995232E-3,
,,,-195.19998750E-6,879.999995232E-3,
,,,-194.99998598E-6,879.999995232E-3,
,,,-194.79998446E-6,799.999952316E-3,
,,,-194.59998293E-6,799.999952316E-3,
,,,-194.39998141E-6,799.999952316E-3,
,,,-194.19997989E-6,719.999969006E-3,
,,,-193.99997836E-6,719.999969006E-3,
,,,-193.79997684E-6,719.999969006E-3,
,,,-193.59997532E-6,719.999969006E-3,
,,,-193.39998835E-6,639.999985695E-3,
,,,-193.19998682E-6,560.000002384E-3,
,,,-192.99998530E-6,560.000002384E-3,
,,,-192.79998378E-6,479.999989271E-3,
,,,-192.59998226E-6,479.999989271E-3,
,,,-192.39998073E-6,479.999989271E-3,
,,,-192.19997921E-6,479.999989271E-3,
,,,-191.99997769E-6,399.99997616E-3,
,,,-191.79997616E-6,479.999989271E-3,
,,,-191.59998919E-6,399.99997616E-3,
,,,-191.39998767E-6,319.99999285E-3,
,,,-191.19998615E-6,239.99999464E-3,
,,,-190.99998462E-6,319.99999285E-3,
,,,-190.79998310E-6,319.99999285E-3,
,,,-190.59998158E-6,239.99999464E-3,
,,,-190.39998006E-6,159.99999642E-3,
,,,-190.19997853E-6,159.99999642E-3,
,,,-189.99997701E-6,159.99999642E-3,
,,,-189.79997549E-6,0.0,
,,,-189.59998852E-6,79.999998212E-3,
,,,-189.39998699E-6,79.999998212E-3,
,,,-189.19998547E-6,79.999998212E-3,
,,,-188.99998395E-6,79.999998212E-3,
,,,-188.79998242E-6,0.0,
,,,-188.59998090E-6,0.0,
,,,-188.39997938E-6,-79.999998212E-3,
,,,-188.19997786E-6,-79.999998212E-3,
,,,-187.99997633E-6,-79.999998212E-3,
,,,-187.79997481E-6,-239.99999464E-3,
,,,-187.59998784E-6,-239.99999464E-3,
,,,-187.39998632E-6,-239.99999464E-3,
,,,-187.19998479E-6,-159.99999642E-3,
,,,-186.99998327E-6,-239.99999464E-3,
,,,-186.79998175E-6,-319.99999285E-3,
,,,-186.59998022E-6,-319.99999285E-3,
,,,-186.39997870E-6,-399.99997616E-3,
,,,-186.19997718E-6,-399.99997616E-3,
,,,-185.99997566E-6,-399.99997616E-3,
,,,-185.79998869E-6,-479.999989271E-3,
,,,-185.59998716E-6,-399.99997616E-3,
,,,-185.39998564E-6,-479.999989271E-3,
,,,-185.19998412E-6,-479.999989271E-3,
,,,-184.99998259E-6,-479.999989271E-3,
,,,-184.79998107E-6,-639.999985695E-3,
,,,-184.59997955E-6,-560.000002384E-3,
,,,-184.39997802E-6,-560.000002384E-3,
,,,-184.19997650E-6,-639.999985695E-3,
,,,-183.99997498E-6,-719.999969006E-3,
,,,-183.79998801E-6,-639.999985695E-3,
,,,-183.59998649E-6,-799.999952316E-3,
,,,-183.39998496E-6,-799.999952316E-3,
,,,-183.19998344E-6,-799.999952316E-3,
,,,-182.99998192E-6,-879.999995232E-3,
,,,-182.79998039E-6,-719.999969006E-3,
,,,-182.59997887E-6,-879.999995232E-3,
,,,-182.39997735E-6,-879.999995232E-3,
,,,-182.19997582E-6,-959.999978542E-3,
,,,-181.99998885E-6,-959.999978542E-3,
,,,-181.79998733E-6,-959.999978542E-3,
,,,-181.59998581E-6,-1.1200000,
,,,-181.39998429E-6,-959.999978542E-3,
,,,-181.19998276E-6,-959.999978542E-3,
,,,-180.99998124E-6,-1.1200000,
,,,-180.79997972E-6,-959.999978542E-3,
,,,-180.59997819E-6,-1.1200000,
,,,-180.39997667E-6,-1.1999999,
,,,-180.19997515E-6,-1.1200000,
,,,-179.99998818E-6,-1.1999999,
,,,-179.79998665E-6,-1.1999999,
,,,-179.59998513E-6,-1.1200000,
,,,-179.39998361E-6,-1.3600000,
,,,-179.19998209E-6,-1.2800000,
,,,-178.99998056E-6,-1.3600000,
,,,-178.79997904E-6,-1.3600000,
,,,-178.59997752E-6,-1.2800000,
,,,-178.39997599E-6,-1.3600000,
,,,-178.19998902E-6,-1.3600000,
,,,-177.99998750E-6,-1.4399999,
,,,-177.79998598E-6,-1.3600000,
,,,-177.59998445E-6,-1.4399999,
,,,-177.39998293E-6,-1.4399999,
,,,-177.19998141E-6,-1.4399999,
,,,-176.99997989E-6,-1.5200000,
,,,-176.79997836E-6,-1.5999999,
,,,-176.59997684E-6,-1.5999999,
,,,-176.39997532E-6,-1.5200000,
,,,-176.19998835E-6,-1.5999999,
,,,-175.99998682E-6,-1.6799999,
,,,-175.79998530E-6,-1.5999999,
,,,-175.59998378E-6,-1.7600000,
,,,-175.39998225E-6,-1.6799999,
,,,-175.19998073E-6,-1.6799999,
,,,-174.99997921E-6,-1.7600000,
,,,-174.79997769E-6,-1.7600000,
,,,-174.59997616E-6,-1.7600000,
,,,-174.39997464E-6,-1.8399999,
,,,-174.19998767E-6,-1.7600000,
,,,-173.99998615E-6,-1.8399999,
,,,-173.79998462E-6,-1.7600000,
,,,-173.59998310E-6,-1.9200000,
,,,-173.39998158E-6,-1.8399999,
,,,-173.19998005E-6,-2.0000000,
,,,-172.99997853E-6,-1.9200000,
,,,-172.79997701E-6,-1.9200000,
,,,-172.59997549E-6,-1.9200000,
,,,-172.39998851E-6,-2.0799999,
,,,-172.19998699E-6,-2.0000000,
,,,-171.99998547E-6,-1.9200000,
,,,-171.79998395E-6,-2.0799999,
,,,-171.59998242E-6,-2.0799999,
,,,-171.39998090E-6,-2.0799999,
,,,-171.19997938E-6,-2.0799999,
,,,-170.99997785E-6,-2.0799999,
,,,-170.79997633E-6,-2.1599998,
,,,-170.59997481E-6,-2.1599998,
,,,-170.39998784E-6,-2.1599998,
,,,-170.19998631E-6,-2.1599998,
,,,-169.99998479E-6,-2.1599998,
,,,-169.79998327E-6,-2.1599998,
,,,-169.59998175E-6,-2.2400000,
,,,-169.39998022E-6,-2.1599998,
,,,-169.19997870E-6,-2.3199999,
,,,-168.99997718E-6,-2.3199999,
,,,-168.79997565E-6,-2.3999999,
,,,-168.59998868E-6,-2.2400000,
,,,-168.39998716E-6,-2.3999999,
,,,-168.19998564E-6,-2.3199999,
,,,-167.99998411E-6,-2.3999999,
,,,-167.79998259E-6,-2.4800000,
,,,-167.59998107E-6,-2.3999999,
,,,-167.39997955E-6,-2.3999999,
,,,-167.19997802E-6,-2.3999999,
,,,-166.99997650E-6,-2.3999999,
,,,-166.79997498E-6,-2.3999999,
,,,-166.59998801E-6,-2.4800000,
,,,-166.39998648E-6,-2.4800000,
,,,-166.19998496E-6,-2.4800000,
,,,-165.99998344E-6,-2.4800000,
,,,-165.79998191E-6,-2.5599999,
,,,-165.59998039E-6,-2.5599999,
,,,-165.39997887E-6,-2.4800000,
,,,-165.19997735E-6,-2.4800000,
,,,-164.99997582E-6,-2.5599999,
,,,-164.79998885E-6,-2.4800000,
,,,-164.59998733E-6,-2.3999999,
,,,-164.39998581E-6,-2.6399999,
,,,-164.19998428E-6,-2.5599999,
,,,-163.99998276E-6,-2.5599999,
,,,-163.79998124E-6,-2.5599999,
,,,-163.59997971E-6,-2.5599999,
,,,-163.39997819E-6,-2.5599999,
,,,-163.19997667E-6,-2.6399999,
,,,-162.99997515E-6,-2.6399999,
,,,-162.79998817E-6,-2.5599999,
,,,-162.59998665E-6,-2.6399999,
,,,-162.39998513E-6,-2.6399999,
,,,-162.19998361E-6,-2.6399999,
,,,-161.99998208E-6,-2.6399999,
,,,-161.79998056E-6,-2.6399999,
,,,-161.59997904E-6,-2.6399999,
,,,-161.39997751E-6,-2.72000003,
,,,-161.19997599E-6,-2.79999995,
,,,-160.99997447E-6,-2.6399999,
,,,-160.79998750E-6,-2.72000003,
,,,-160.59998597E-6,-2.72000003,
,,,-160.39998445E-6,-2.72000003,
,,,-160.19998293E-6,-2.72000003,
,,,-159.99998141E-6,-2.72000003,
,,,-159.79997988E-6,-2.6399999,
,,,-159.59997836E-6,-2.72000003,
,,,-159.39997684E-6,-2.72000003,
,,,-159.19997531E-6,-2.72000003,
,,,-158.99998834E-6,-2.72000003,
,,,-158.79998682E-6,-2.72000003,
,,,-158.59998530E-6,-2.6399999,
,,,-158.39998377E-6,-2.72000003,
,,,-158.19998225E-6,-2.79999995,
,,,-157.99998073E-6,-2.6399999,
,,,-157.79997921E-6,-2.72000003,
,,,-157.59997768E-6,-2.72000003,
,,,-157.39997616E-6,-2.72000003,
,,,-157.19997464E-6,-2.72000003,
,,,-156.99998767E-6,-2.79999995,
,,,-156.79998614E-6,-2.72000003,
,,,-156.59998462E-6,-2.79999995,
,,,-156.39998310E-6,-2.72000003,
,,,-156.19998157E-6,-2.72000003,
,,,-155.99998005E-6,-2.6399999,
,,,-155.79997853E-6,-2.72000003,
,,,-155.59997701E-6,-2.6399999,
,,,-155.39997548E-6,-2.72000003,
,,,-155.19998851E-6,-2.72000003,
,,,-154.99998699E-6,-2.6399999,
,,,-154.79998547E-6,-2.5599999,
,,,-154.59998394E-6,-2.72000003,
,,,-154.39998242E-6,-2.72000003,
,,,-154.19998090E-6,-2.6399999,
,,,-153.99997937E-6,-2.5599999,
,,,-153.79997785E-6,-2.72000003,
,,,-153.59997633E-6,-2.72000003,
,,,-153.39997481E-6,-2.6399999,
,,,-153.19998784E-6,-2.6399999,
,,,-152.99998631E-6,-2.6399999,
,,,-152.79998479E-6,-2.5599999,
,,,-152.59998327E-6,-2.6399999,
,,,-152.39998174E-6,-2.6399999,
,,,-152.19998022E-6,-2.5599999,
,,,-151.99997870E-6,-2.6399999,
,,,-151.79997717E-6,-2.5599999,
,,,-151.59997565E-6,-2.5599999,
,,,-151.39998868E-6,-2.5599999,
,,,-151.19998716E-6,-2.4800000,
,,,-150.99998564E-6,-2.5599999,
,,,-150.79998411E-6,-2.5599999,
,,,-150.59998259E-6,-2.5599999,
,,,-150.39998107E-6,-2.5599999,
,,,-150.19997954E-6,-2.5599999,
,,,-149.99997802E-6,-2.4800000,
,,,-149.79997650E-6,-2.5599999,
,,,-149.59997497E-6,-2.4800000,
,,,-149.39998800E-6,-2.4800000,
,,,-149.19998648E-6,-2.5599999,
,,,-148.99998496E-6,-2.4800000,
,,,-148.79998344E-6,-2.3999999,
,,,-148.59998191E-6,-2.4800000,
,,,-148.3999804E-6,-2.4800000,
,,,-148.1999789E-6,-2.3999999,
,,,-147.9999773E-6,-2.3999999,
,,,-147.7999758E-6,-2.3999999,
,,,-147.5999888E-6,-2.3999999,
,,,-147.3999873E-6,-2.3999999,
,,,-147.1999858E-6,-2.3199999,
,,,-146.9999843E-6,-2.3199999,
,,,-146.7999828E-6,-2.3999999,
,,,-146.5999812E-6,-2.2400000,
,,,-146.3999797E-6,-2.3199999,
,,,-146.1999782E-6,-2.3199999,
,,,-145.9999767E-6,-2.1599998,
,,,-145.7999751E-6,-2.2400000,
,,,-145.5999882E-6,-2.1599998,
,,,-145.3999866E-6,-2.2400000,
,,,-145.1999851E-6,-2.3199999,
,,,-144.9999836E-6,-2.0799999,
,,,-144.7999821E-6,-2.1599998,
,,,-144.5999806E-6,-2.0799999,
,,,-144.3999790E-6,-2.1599998,
,,,-144.1999775E-6,-2.1599998,
,,,-143.9999760E-6,-2.0799999,
,,,-143.7999745E-6,-2.1599998,
,,,-143.5999875E-6,-2.1599998,
,,,-143.3999860E-6,-2.1599998,
,,,-143.1999844E-6,-2.0799999,
,,,-142.9999829E-6,-1.9200000,
,,,-142.7999814E-6,-2.0000000,
,,,-142.5999799E-6,-2.0799999,
,,,-142.3999784E-6,-2.0000000,
,,,-142.1999768E-6,-1.9200000,
,,,-141.9999753E-6,-1.9200000,
,,,-141.7999883E-6,-2.0000000,
,,,-141.5999868E-6,-1.8399999,
,,,-141.3999853E-6,-2.0000000,
,,,-141.1999838E-6,-1.7600000,
,,,-140.9999822E-6,-1.8399999,
,,,-140.7999807E-6,-1.9200000,
,,,-140.5999792E-6,-1.7600000,
,,,-140.3999777E-6,-1.7600000,
,,,-140.1999762E-6,-1.8399999,
,,,-139.9999746E-6,-1.7600000,
,,,-139.7999877E-6,-1.7600000,
,,,-139.5999861E-6,-1.5999999,
,,,-139.3999846E-6,-1.7600000,
,,,-139.1999831E-6,-1.6799999,
,,,-138.9999816E-6,-1.5999999,
,,,-138.7999800E-6,-1.5200000,
,,,-138.5999785E-6,-1.5999999,
,,,-138.3999770E-6,-1.5999999,
,,,-138.1999755E-6,-1.5200000,
,,,-137.9999885E-6,-1.4399999,
,,,-137.7999870E-6,-1.5200000,
,,,-137.5999855E-6,-1.4399999,
,,,-137.3999839E-6,-1.5200000,
,,,-137.1999824E-6,-1.5200000,
,,,-136.9999809E-6,-1.4399999,
,,,-136.7999794E-6,-1.3600000,
,,,-136.5999778E-6,-1.3600000,
,,,-136.3999763E-6,-1.4399999,
,,,-136.1999748E-6,-1.3600000,
,,,-135.9999878E-6,-1.3600000,
,,,-135.7999863E-6,-1.1999999,
,,,-135.5999848E-6,-1.1999999,
,,,-135.3999833E-6,-1.2800000,
,,,-135.1999817E-6,-1.1200000,
,,,-134.9999802E-6,-1.1200000,
,,,-134.7999787E-6,-1.1999999,
,,,-134.5999772E-6,-1.1200000,
,,,-134.3999757E-6,-1.0400000,
,,,-134.1999887E-6,-1.1200000,
,,,-133.9999872E-6,-1.0400000,
,,,-133.7999856E-6,-959.999978542E-3,
,,,-133.5999841E-6,-1.0400000,
,,,-133.3999826E-6,-1.0400000,
,,,-133.1999811E-6,-959.999978542E-3,
,,,-132.9999795E-6,-959.999978542E-3,
,,,-132.7999780E-6,-879.999995232E-3,
,,,-132.5999765E-6,-799.999952316E-3,
,,,-132.3999750E-6,-799.999952316E-3,
,,,-132.1999880E-6,-719.999969006E-3,
,,,-131.9999865E-6,-799.999952316E-3,
,,,-131.7999850E-6,-799.999952316E-3,
,,,-131.5999834E-6,-639.999985695E-3,
,,,-131.3999819E-6,-719.999969006E-3,
,,,-131.1999804E-6,-799.999952316E-3,
,,,-130.9999789E-6,-639.999985695E-3,
,,,-130.7999773E-6,-639.999985695E-3,
,,,-130.5999758E-6,-560.000002384E-3,
,,,-130.3999743E-6,-560.000002384E-3,
,,,-130.1999873E-6,-639.999985695E-3,
,,,-129.9999858E-6,-560.000002384E-3,
,,,-129.7999843E-6,-319.99999285E-3,
